router_exp/cores/gmii_tx/simulation/test.vcd
$date
	Fri Mar 28 17:07:18 2014
$end
$version
	Icarus Verilog
$end
$timescale
	1ps
$end
$scope module tb_gmiisend $end
$var wire 8 ! TXD [7:0] $end
$var wire 1 " TXEN $end
$var wire 1 # rd_en $end
$var reg 12 $ counter [11:0] $end
$var reg 1 % empty $end
$var reg 1 & fifo_clk $end
$var reg 1 ' full $end
$var reg 1 ( gmii_tx_clk $end
$var reg 1 ) sys_clk $end
$var reg 1 * sys_rst $end
$var reg 24 + tx_data [23:0] $end
$scope module gmiisend $end
$var wire 1 , crc_data_en $end
$var wire 32 - crc_out [31:0] $end
$var wire 1 . debug $end
$var wire 48 / dout [47:0] $end
$var wire 1 0 empty $end
$var wire 1 1 fifo_clk $end
$var wire 1 2 full $end
$var wire 1 # rd_en $end
$var wire 1 3 send_enable $end
$var wire 1 4 sys_rst $end
$var wire 1 5 tx_clk $end
$var wire 1 6 wr_en $end
$var reg 1 7 buf1_tx_en $end
$var reg 1 8 buf1_wr_en $end
$var reg 1 9 buf2_tx_en $end
$var reg 1 : buf2_wr_en $end
$var reg 2 ; cnt3 [1:0] $end
$var reg 11 < count [10:0] $end
$var reg 1 = crc_init $end
$var reg 1 > crc_rd $end
$var reg 2 ? fcs_count [1:0] $end
$var reg 1 @ fstate $end
$var reg 32 A gap_count [31:0] $end
$var reg 24 B ip_check [23:0] $end
$var reg 1 C ppl $end
$var reg 4 D state [3:0] $end
$var reg 1 E tx_en $end
$var reg 8 F txd [7:0] $end
$var reg 1 G zero $end
$scope module crc_gen $end
$var wire 32 H CRC_out [31:0] $end
$var wire 1 I CRC_rd $end
$var wire 1 5 Clk $end
$var wire 1 , Data_en $end
$var wire 8 J Frame_data [7:0] $end
$var wire 1 K Init $end
$var wire 1 4 Reset $end
$var reg 1 L CRC_end $end
$var reg 32 M CRC_reg [31:0] $end
$scope function NextCRC $end
$var reg 32 N C [31:0] $end
$var reg 8 O D [7:0] $end
$var reg 32 P NewCRC [31:0] $end
$var reg 32 Q NextCRC [31:0] $end
$upscope $end
$upscope $end
$upscope $end
$scope task waitclock $end
$upscope $end
$upscope $end
$enddefinitions $end
#0
$dumpvars
bx Q
bx P
bx O
bx N
b11111111111111111111111111111111 M
xL
xK
bx J
xI
b0 H
0G
bx F
xE
bx D
xC
bx B
bx A
x@
bx ?
x>
x=
bx <
bx ;
x:
x9
x8
x7
z6
05
14
x3
x2
01
x0
b0xxxxxxxxxxxxxxxxxxxxxxxx /
x.
b0 -
x,
bx +
1*
0)
0(
x'
0&
x%
b0 $
x#
x"
bx !
$end
#8000
0#
0,
0.
b0 B
0=
0K
b0 A
1>
1I
b0 ?
b0 ;
b0 D
b0 <
0E
0"
b0 F
b0 !
b0 J
b1 $
0'
02
1%
10
b111111111111111111111111 +
b111111111111111111111111 /
1(
15
1)
#13468
0:
08
0C
0@
03
1&
11
#16000
0(
05
0)
#24000
b10 $
1(
15
1)
#25000
0*
04
#26936
0&
01
#32000
0(
05
0)
#40000
1,
0>
0I
b11 $
1(
15
1)
#40404
07
z8
1&
11
#48000
b10001101111011110000001011010010 -
b10001101111011110000001011010010 H
b1001110000010001011111110110100 M
b1001110000010001011111110110100 Q
b1001110000010001011111110110100 P
b11111111111111111111111111111111 N
b0 O
0(
05
0)
#53872
0&
01
#56000
b100 $
1(
15
1)
#64000
b11111111000100101101100101000001 -
b11111111000100101101100101000001 H
b101101110110010001111101 M
b101101110110010001111101 Q
b101101110110010001111101 P
b1001110000010001011111110110100 N
0(
05
0)
#67340
09
z:
1&
11
#72000
b101 $
1(
15
1)
#80000
b10010110110010100000111111111 -
b10010110110010100000111111111 H
b10110111011001000111110100000000 M
b10110111011001000111110100000000 Q
b10110111011001000111110100000000 P
b101101110110010001111101 N
0(
05
0)
#80808
0&
01
#88000
b110 $
1(
15
1)
#94276
1&
11
#96000
b11100110111110100010000100001 -
b11100110111110100010000100001 H
b11000111000001001101110101111011 M
b11000111000001001101110101111011 Q
b11000111000001001101110101111011 P
b10110111011001000111110100000000 N
0(
05
0)
#104000
b111 $
1(
15
1)
#107744
0&
01
#112000
b11101111101110010001011000110 -
b11101111101110010001011000110 H
b1000111000100001011101110011100 M
b1000111000100001011101110011100 Q
b1000111000100001011101110011100 P
b11000111000001001101110101111011 N
0(
05
0)
#120000
b1000 $
1(
15
1)
#121212
1&
11
#128000
b10100011101000011100001010110001 -
b10100011101000011100001010110001 H
b111010011110101011110001110010 M
b111010011110101011110001110010 Q
b111010011110101011110001110010 P
b1000111000100001011101110011100 N
0(
05
0)
#134680
0&
01
#136000
b1001 $
1(
15
1)
#144000
b1111110110111110110110010011101 -
b1111110110111110110110010011101 H
b10000001000001001100100101000110 M
b10000001000001001100100101000110 Q
b10000001000001001100100101000110 P
b111010011110101011110001110010 N
0(
05
0)
#148148
1&
11
#152000
b1010 $
1(
15
1)
#160000
b1101001110111110010001001100101 -
b1101001110111110010001001100101 H
b1101001000001001011101101011001 M
b1101001000001001011101101011001 Q
b1101001000001001011101101011001 P
b10000001000001001100100101000110 N
0(
05
0)
#161616
0&
01
#168000
b1011 $
1(
15
1)
#175084
1&
11
#176000
b10101110000101000000100111100110 -
b10101110000101000000100111100110 H
b10001010110101110110111110011000 M
b10001010110101110110111110011000 Q
b10001010110101110110111110011000 P
b1101001000001001011101101011001 N
0(
05
0)
#184000
b1100 $
1(
15
1)
#188552
0&
01
#192000
b1110110011010001000101011100011 -
b1110110011010001000101011100011 H
b10010001111010011010111000111000 M
b10010001111010011010111000111000 Q
b10010001111010011010111000111000 P
b10001010110101110110111110011000 N
0(
05
0)
#200000
b1101 $
1(
15
1)
#202020
1&
11
#208000
b11101100101100011000011101101011 -
b11101100101100011000011101101011 H
b11001000011100100001111000101001 M
b11001000011100100001111000101001 Q
b11001000011100100001111000101001 P
b10010001111010011010111000111000 N
0(
05
0)
#215488
0&
01
#216000
b1110 $
1(
15
1)
#224000
b1101111110001101101010101111011 -
b1101111110001101101010101111011 H
b1001100111000101010000100001 M
b1001100111000101010000100001 Q
b1001100111000101010000100001 P
b11001000011100100001111000101001 N
0(
05
0)
#228956
1&
11
#232000
b1111 $
1(
15
1)
#240000
b10000010010001100111010000001111 -
b10000010010001100111010000001111 H
b10111110100111011101000100001111 M
b10111110100111011101000100001111 Q
b10111110100111011101000100001111 P
b1001100111000101010000100001 N
0(
05
0)
#242424
0&
01
#248000
b10000 $
1(
15
1)
#255892
1&
11
#256000
b11000111011110011011101111010001 -
b11000111011110011011101111010001 H
b11100011000010010001001110100 M
b11100011000010010001001110100 Q
b11100011000010010001001110100 P
b10111110100111011101000100001111 N
0(
05
0)
#264000
b10001 $
1(
15
1)
#269360
0&
01
#272000
b11100111000000111101001111010111 -
b11100111000000111101001111010111 H
b11000001111110011010000010100 M
b11000001111110011010000010100 Q
b11000001111110011010000010100 P
b11100011000010010001001110100 N
0(
05
0)
#280000
b10010 $
1(
15
1)
#282828
1&
11
#288000
b1010101010010111011101111101100 -
b1010101010010111011101111101100 H
b1010101001011010010001011001000 M
b1010101001011010010001011001000 Q
b1010101001011010010001011001000 P
b11000001111110011010000010100 N
0(
05
0)
#296000
b10011 $
1(
15
1)
#296296
0&
01
#304000
b10111101111100011110111111001001 -
b10111101111100011110111111001001 H
b1000010011100000000100001101100 M
b1000010011100000000100001101100 Q
b1000010011100000000100001101100 P
b1010101001011010010001011001000 N
0(
05
0)
#309764
1&
11
#312000
b10100 $
1(
15
1)
#320000
b1001101110011110001101101100111 -
b1001101110011110001101101100111 H
b1001101000011000010011100011001 M
b1001101000011000010011100011001 Q
b1001101000011000010011100011001 P
b1000010011100000000100001101100 N
0(
05
0)
#323232
0&
01
#328000
b10101 $
1(
15
1)
#336000
b1101111110010010000100011011010 -
b1101111110010010000100011011010 H
b1001011011001110111110100100 M
b1001011011001110111110100100 Q
b1001011011001110111110100100 P
b1001101000011000010011100011001 N
0(
05
0)
#336700
1&
11
#344000
b10110 $
1(
15
1)
#350168
0&
01
#352000
b10001101100110111101010100001111 -
b10001101100110111101010100001111 H
b1001110001001100101010000001111 M
b1001110001001100101010000001111 Q
b1001110001001100101010000001111 P
b1001011011001110111110100100 N
0(
05
0)
#360000
b10111 $
1(
15
1)
#363636
1&
11
#368000
b10001011110001010000010001000001 -
b10001011110001010000010001000001 H
b101110010111001101111101111101 M
b101110010111001101111101111101 Q
b101110010111001101111101111101 P
b1001110001001100101010000001111 N
0(
05
0)
#376000
b11000 $
1(
15
1)
#377104
0&
01
#384000
b11100000101100010010100110101000 -
b11100000101100010010100110101000 H
b11111000011100100110101111101010 M
b11111000011100100110101111101010 Q
b11111000011100100110101111101010 P
b101110010111001101111101111101 N
0(
05
0)
#390572
1&
11
#392000
b11001 $
1(
15
1)
#400000
b1000100001001001010000001110010 -
b1000100001001001010000001110010 H
b11011101110110111111101010110001 M
b11011101110110111111101010110001 Q
b11011101110110111111101010110001 P
b11111000011100100110101111101010 N
0(
05
0)
#404040
0&
01
#408000
b11010 $
1(
15
1)
#416000
b100000110010101100000110100011 -
b100000110010101100000110100011 H
b11111011101011000111110000111010 M
b11111011101011000111110000111010 Q
b11111011101011000111110000111010 P
b11011101110110111111101010110001 N
0(
05
0)
#417508
1&
11
#424000
b11011 $
1(
15
1)
#430976
0&
01
#432000
b10001111000011101100111111101001 -
b10001111000011101100111111101001 H
b1110100011110000110001101000 M
b1110100011110000110001101000 Q
b1110100011110000110001101000 P
b11111011101011000111110000111010 N
0(
05
0)
#440000
b11100 $
1(
15
1)
#444444
1&
11
#448000
b110010101111101110110010101111 -
b110010101111101110110010101111 H
b10110011100000101100100000001010 M
b10110011100000101100100000001010 Q
b10110011100000101100100000001010 P
b1110100011110000110001101000 N
0(
05
0)
#456000
b11101 $
1(
15
1)
#457912
0&
01
#464000
b10110011010100100111101000011010 -
b10110011010100100111101000011010 H
b110010101101011010000110100111 M
b110010101101011010000110100111 Q
b110010101101011010000110100111 P
b10110011100000101100100000001010 N
0(
05
0)
#471380
1&
11
#472000
b11110 $
1(
15
1)
#480000
b11101001011101110111000010000000 -
b11101001011101110111000010000000 H
b1101000000100011111000111111110 M
b1101000000100011111000111111110 Q
b1101000000100011111000111111110 P
b110010101101011010000110100111 N
0(
05
0)
#484848
0&
01
#488000
b11111 $
1(
15
1)
#496000
b100110110001010101010000001011 -
b100110110001010101010000001011 H
b10011011010111001101010100101111 M
b10011011010111001101010100101111 Q
b10011011010111001101010100101111 P
b1101000000100011111000111111110 N
0(
05
0)
#498316
1&
11
#504000
b100000 $
1(
15
1)
#511784
0&
01
#512000
b10110101001111100000010000000000 -
b10110101001111100000010000000000 H
b1010010100000111101111111111111 M
b1010010100000111101111111111111 Q
b1010010100000111101111111111111 P
b10011011010111001101010100101111 N
0(
05
0)
#520000
b100001 $
1(
15
1)
#525252
1&
11
#528000
b10110000101011000000100101101001 -
b10110000101011000000100101101001 H
b11110010110010100110111101101001 M
b11110010110010100110111101101001 Q
b11110010110010100110111101101001 P
b1010010100000111101111111111111 N
0(
05
0)
#536000
b100010 $
1(
15
1)
#538720
0&
01
#544000
b10101101010101010000101000011001 -
b10101101010101010000101000011001 H
b1001010010101011010111101100111 M
b1001010010101011010111101100111 Q
b1001010010101011010111101100111 P
b11110010110010100110111101101001 N
0(
05
0)
#552000
b100011 $
1(
15
1)
#552188
1&
11
#560000
b10001101001110100111110001111010 -
b10001101001110100111110001111010 H
b1001110101000111100000110100001 M
b1001110101000111100000110100001 Q
b1001110101000111100000110100001 P
b1001010010101011010111101100111 N
0(
05
0)
#565656
0&
01
#568000
b100100 $
1(
15
1)
#576000
b101010011011000111000101000001 -
b101010011011000111000101000001 H
b10101011110010010111000101111101 M
b10101011110010010111000101111101 Q
b10101011110010010111000101111101 P
b1001110101000111100000110100001 N
0(
05
0)
#579124
1&
11
#584000
b100101 $
1(
15
1)
#592000
b110111010101111111100000001001 -
b110111010101111111100000001001 H
b10011000101011110000001101111 M
b10011000101011110000001101111 Q
b10011000101011110000001101111 P
b10101011110010010111000101111101 N
0(
05
0)
#592592
0&
01
#600000
b100110 $
0%
00
1(
15
1)
#606060
1&
11
#608000
b11010101101100101011011001101010 -
b11010101101100101011011001101010 H
b1010100101100101001001010101001 M
b1010100101100101001001010101001 Q
b1010100101100101001001010101001 P
b10011000101011110000001101111 N
0(
05
0)
#616000
b100111 $
1(
15
1)
#619528
0&
01
#624000
b1100100011111111101000100100100 -
b1100100011111111101000100100100 H
b11011001000000010111010011011011 M
b11011001000000010111010011011011 Q
b11011001000000010111010011011011 P
b1010100101100101001001010101001 N
0(
05
0)
#632000
b101000 $
1(
15
1)
#632996
1&
11
#640000
b10110011100110111111100110011000 -
b10110011100110111111100110011000 H
b110010001001100110000011100110 M
b110010001001100110000011100110 Q
b110010001001100110000011100110 P
b11011001000000010111010011011011 N
0(
05
0)
#646464
0&
01
#648000
b101001 $
1(
15
1)
#656000
b100000111101001111001010000000 -
b100000111101001111001010000000 H
b11111011110100001011000011111110 M
b11111011110100001011000011111110 Q
b11111011110100001011000011111110 P
b110010001001100110000011100110 N
0(
05
0)
#659932
1&
11
#664000
b101010 $
1(
15
1)
#672000
b10110001001111011110110011101001 -
b10110001001111011110110011101001 H
b1110010010000111100100001101000 M
b1110010010000111100100001101000 Q
b1110010010000111100100001101000 P
b11111011110100001011000011111110 N
0(
05
0)
#673400
0&
01
#680000
b101011 $
1(
15
1)
#686868
1&
11
#688000
b10101010100000001000110101101110 -
b10101010100000001000110101101110 H
b10101010111111100100111010001001 M
b10101010111111100100111010001001 Q
b10101010111111100100111010001001 P
b1110010010000111100100001101000 N
0(
05
0)
#696000
b101100 $
1(
15
1)
#700336
0&
01
#704000
b11111011001010000110111111100100 -
b11111011001010000110111111100100 H
b100000111010110000100111011000 M
b100000111010110000100111011000 Q
b100000111010110000100111011000 P
b10101010111111100100111010001001 N
0(
05
0)
#712000
b101101 $
1(
15
1)
#713804
1&
11
#720000
b110001101010111000100111111000 -
b110001101010111000100111111000 H
b1110011001010100110111011100000 M
b1110011001010100110111011100000 Q
b1110011001010100110111011100000 P
b100000111010110000100111011000 N
0(
05
0)
#727272
0&
01
#728000
b101110 $
1(
15
1)
#736000
b11100011001100010010010000011 -
b11100011001100010010010000011 H
b11000111100110011101101100111110 M
b11000111100110011101101100111110 Q
b11000111100110011101101100111110 P
b1110011001010100110111011100000 N
0(
05
0)
#740740
1&
11
#744000
b101111 $
1(
15
1)
#752000
b10100100100101111000000011000110 -
b10100100100101111000000011000110 H
b11011010000101101111111010011100 M
b11011010000101101111111010011100 Q
b11011010000101101111111010011100 P
b11000111100110011101101100111110 N
0(
05
0)
#754208
0&
01
#760000
b110000 $
1(
15
1)
#767676
1&
11
#768000
b11101011000010000111111100000011 -
b11101011000010000111111100000011 H
b101000111011110000000100111111 M
b101000111011110000000100111111 Q
b101000111011110000000100111111 P
b11011010000101101111111010011100 N
0(
05
0)
#776000
b110001 $
1(
15
1)
#781144
0&
01
#784000
b1110101101010111101100111100101 -
b1110101101010111101100111100101 H
b1010001001010100110010001011000 M
b1010001001010100110010001011000 Q
b1010001001010100110010001011000 P
b101000111011110000000100111111 N
0(
05
0)
#792000
b110010 $
1(
15
1)
#794612
1&
11
#800000
b10010101101100111000100011110010 -
b10010101101100111000100011110010 H
b1010110001100101110111010110000 M
b1010110001100101110111010110000 Q
b1010110001100101110111010110000 P
b1010001001010100110010001011000 N
0(
05
0)
#808000
b110011 $
1(
15
1)
#808080
0&
01
#816000
b11110101000000001001010101010010 -
b11110101000000001001010101010010 H
b1010000111111110101011010110101 M
b1010000111111110101011010110101 Q
b1010000111111110101011010110101 P
b1010110001100101110111010110000 N
0(
05
0)
#821548
1&
11
#824000
b110100 $
1(
15
1)
#832000
b11110011111001000011100011111 -
b11110011111001000011100011111 H
b10000111110000010001111000000111 M
b10000111110000010001111000000111 Q
b10000111110000010001111000000111 P
b1010000111111110101011010110101 N
0(
05
0)
#835016
0&
01
#840000
b110101 $
1(
15
1)
#848000
b10010010010101010001001000101000 -
b10010010010101010001001000101000 H
b10110110010101011011011111101011 M
b10110110010101011011011111101011 Q
b10110110010101011011011111101011 P
b10000111110000010001111000000111 N
0(
05
0)
#848484
1&
11
#856000
b110110 $
1(
15
1)
#861952
0&
01
#864000
b10110000000011110010101111001100 -
b10110000000011110010101111001100 H
b11110010000011110010101111001100 M
b11110010000011110010101111001100 Q
b11110010000011110010101111001100 P
b10110110010101011011011111101011 N
0(
05
0)
#872000
b110111 $
1(
15
1)
#875420
1&
11
#880000
b1110011101111010111100011001 -
b1110011101111010111100011001 H
b10001111000100010000101001100111 M
b10001111000100010000101001100111 Q
b10001111000100010000101001100111 P
b11110010000011110010101111001100 N
0(
05
0)
#888000
b111000 $
1(
15
1)
#888888
0&
01
#896000
b11111101011011011010001100110101 -
b11111101011011011010001100110101 H
b1000000010010010011101001010011 M
b1000000010010010011101001010011 Q
b1000000010010010011101001010011 P
b10001111000100010000101001100111 N
0(
05
0)
#902356
1&
11
#904000
b111001 $
1(
15
1)
#912000
b1000001110000100011101100010001 -
b1000001110000100011101100010001 H
b1111101101111000010001101110111 M
b1111101101111000010001101110111 Q
b1111101101111000010001101110111 P
b1000000010010010011101001010011 N
0(
05
0)
#915824
0&
01
#920000
b111010 $
1(
15
1)
#928000
b1001001101001011100100011010011 -
b1001001101001011100100011010011 H
b1101101010110101110110000110100 M
b1101101010110101110110000110100 Q
b1101101010110101110110000110100 P
b1111101101111000010001101110111 N
0(
05
0)
#929292
1&
11
#936000
b111011 $
1(
15
1)
#942760
0&
01
#944000
b11100110111101101000111011101 -
b11100110111101101000111011101 H
b11000111100001000111010001000100 M
b11000111100001000111010001000100 Q
b11000111100001000111010001000100 P
b1101101010110101110110000110100 N
0(
05
0)
#952000
b111100 $
1(
15
1)
#956228
1&
11
#960000
b11100011000101101111011000110 -
b11100011000101101111011000110 H
b11000111101110011000010010011100 M
b11000111101110011000010010011100 Q
b11000111101110011000010010011100 P
b11000111100001000111010001000100 N
0(
05
0)
#968000
b111101 $
1(
15
1)
#969696
0&
01
#976000
b10100000011011011100010111000110 -
b10100000011011011100010111000110 H
b11111010010010010101110010011100 M
b11111010010010010101110010011100 Q
b11111010010010010101110010011100 P
b11000111101110011000010010011100 N
0(
05
0)
#983164
1&
11
#984000
b111110 $
1(
15
1)
#992000
b1000100010010001001000000100 -
b1000100010010001001000000100 H
b11101111011011101011011111011111 M
b11101111011011101011011111011111 Q
b11101111011011101011011111011111 P
b11111010010010010101110010011100 N
0(
05
0)
#996632
0&
01
#1000000
b111111 $
1(
15
1)
#1008000
b110110011101011101110111011100 -
b110110011101011101110111011100 H
b10010011010100010100010011000100 M
b10010011010100010100010011000100 Q
b10010011010100010100010011000100 P
b11101111011011101011011111011111 N
0(
05
0)
#1010100
1&
11
#1016000
b1000000 $
1(
15
1)
#1023568
0&
01
#1024000
b1100001101001110110010000011101 -
b1100001101001110110010000011101 H
b1111001000110101101100101000111 M
b1111001000110101101100101000111 Q
b1111001000110101101100101000111 P
b10010011010100010100010011000100 N
0(
05
0)
#1032000
b1000001 $
1(
15
1)
#1037036
1&
11
#1040000
b11100100110110101010101011101000 -
b11100100110110101010101011101000 H
b11011000101001001010101011101000 M
b11011000101001001010101011101000 Q
b11011000101001001010101011101000 P
b1111001000110101101100101000111 N
0(
05
0)
#1048000
b1000010 $
1(
15
1)
#1050504
0&
01
#1056000
b110110011000111000110101110101 -
b110110011000111000110101110101 H
b10010011001110010100111001010001 M
b10010011001110010100111001010001 Q
b10010011001110010100111001010001 P
b11011000101001001010101011101000 N
0(
05
0)
#1063972
1&
11
#1064000
b1000011 $
1(
15
1)
#1072000
b1110111111101111100110100011101 -
b1110111111101111100110100011101 H
b10001000100000100110001000111 M
b10001000100000100110001000111 Q
b10001000100000100110001000111 P
b10010011001110010100111001010001 N
0(
05
0)
#1077440
0&
01
#1080000
b1000100 $
1(
15
1)
#1088000
b11100101110001100111111000011100 -
b11100101110001100111111000011100 H
b1011000100111001000000111000111 M
b1011000100111001000000111000111 Q
b1011000100111001000000111000111 P
b10001000100000100110001000111 N
0(
05
0)
#1090908
1&
11
#1096000
b1000101 $
1(
15
1)
#1104000
b10111100100001110111111000000010 -
b10111100100001110111111000000010 H
b11000010000111101000000110111111 M
b11000010000111101000000110111111 Q
b11000010000111101000000110111111 P
b1011000100111001000000111000111 N
0(
05
0)
#1104376
0&
01
#1112000
b1000110 $
1(
15
1)
#1117844
1&
11
#1120000
b10101101011011101101011100010000 -
b10101101011011101101011100010000 H
b1001010100010010001010011110111 M
b1001010100010010001010011110111 Q
b1001010100010010001010011110111 P
b11000010000111101000000110111111 N
0(
05
0)
#1128000
b1000111 $
1(
15
1)
#1131312
0&
01
#1136000
b10110110111001110111010101111010 -
b10110110111001110111010101111010 H
b10010010000110000101000110100001 M
b10010010000110000101000110100001 Q
b10010010000110000101000110100001 P
b1001010100010010001010011110111 N
0(
05
0)
#1144000
b1001000 $
1(
15
1)
#1144780
1&
11
#1152000
b11010011100011000111101011110000 -
b11010011100011000111101011110000 H
b110100110011101010000111110000 M
b110100110011101010000111110000 Q
b110100110011101010000111110000 P
b10010010000110000101000110100001 N
0(
05
0)
#1158248
0&
01
#1160000
b1001001 $
1(
15
1)
#1168000
b1101111000101100010100011001101 -
b1101111000101100010100011001101 H
b1001100101111110101101001100 M
b1001100101111110101101001100 Q
b1001100101111110101101001100 P
b110100110011101010000111110000 N
0(
05
0)
#1171716
1&
11
#1176000
b1001010 $
1(
15
1)
#1184000
b1010010101110111100001000001111 -
b1010010101110111100001000001111 H
b10110101001000101011110000001111 M
b10110101001000101011110000001111 Q
b10110101001000101011110000001111 P
b1001100101111110101101001100 N
0(
05
0)
#1185184
0&
01
#1192000
b1001011 $
1(
15
1)
#1198652
1&
11
#1200000
b11101110000111010110100001010111 -
b11101110000111010110100001010111 H
b10001000010001111110100100010101 M
b10001000010001111110100100010101 Q
b10001000010001111110100100010101 P
b10110101001000101011110000001111 N
0(
05
0)
#1208000
b1001100 $
1(
15
1)
#1212120
0&
01
#1216000
b11101111010010001110011110010101 -
b11101111010010001110011110010101 H
b1000111011010001100001010110 M
b1000111011010001100001010110 Q
b1000111011010001100001010110 P
b10001000010001111110100100010101 N
0(
05
0)
#1224000
b1001101 $
1(
15
1)
#1225588
1&
11
#1232000
b101100111101110010001011100010 -
b101100111101110010001011100010 H
b11001011000100001011101110111000 M
b11001011000100001011101110111000 Q
b11001011000100001011101110111000 P
b1000111011010001100001010110 N
0(
05
0)
#1239056
0&
01
#1240000
b1001110 $
1(
15
1)
#1248000
b10011001101000010011100011100000 -
b10011001101000010011100011100000 H
b1100110011110101110001111111000 M
b1100110011110101110001111111000 Q
b1100110011110101110001111111000 P
b11001011000100001011101110111000 N
0(
05
0)
#1252524
1&
11
#1256000
b1001111 $
1(
15
1)
#1264000
b11001100111111000011000101011011 -
b11001100111111000011000101011011 H
b11001100110000000111001100100101 M
b11001100110000000111001100100101 Q
b11001100110000000111001100100101 P
b1100110011110101110001111111000 N
0(
05
0)
#1265992
0&
01
#1272000
b1010000 $
1(
15
1)
#1279460
1&
11
#1280000
b11101010010100001000101101000000 -
b11101010010100001000101101000000 H
b10101000111101010010111011111101 M
b10101000111101010010111011111101 Q
b10101000111101010010111011111101 P
b11001100110000000111001100100101 N
0(
05
0)
#1288000
b1010001 $
1(
15
1)
#1292928
0&
01
#1296000
b10111011011011111001110110010010 -
b10111011011011111001110110010010 H
b100010000010010100011010110110 M
b100010000010010100011010110110 Q
b100010000010010100011010110110 P
b10101000111101010010111011111101 N
0(
05
0)
#1304000
b1010010 $
1(
15
1)
#1306396
1&
11
#1312000
b11100110000110000010001110001110 -
b11100110000110000010001110001110 H
b10011000111001110011101110001110 M
b10011000111001110011101110001110 Q
b10011000111001110011101110001110 P
b100010000010010100011010110110 N
0(
05
0)
#1319864
0&
01
#1320000
b1010011 $
1(
15
1)
#1328000
b11011000100010111110010110011011 -
b11011000100010111110010110011011 H
b11100100001011100101100000100110 M
b11100100001011100101100000100110 Q
b11100100001011100101100000100110 P
b10011000111001110011101110001110 N
0(
05
0)
#1333332
1&
11
#1336000
b1010100 $
1(
15
1)
#1344000
b11100000010100001001000101011010 -
b11100000010100001001000101011010 H
b11111000111101010111011010100101 M
b11111000111101010111011010100101 Q
b11111000111101010111011010100101 P
b11100100001011100101100000100110 N
0(
05
0)
#1346800
0&
01
#1352000
b1010101 $
1(
15
1)
#1360000
b10100101100111000101001001110010 -
b10100101100111000101001001110010 H
b1011010110001101011010110110001 M
b1011010110001101011010110110001 Q
b1011010110001101011010110110001 P
b11111000111101010111011010100101 N
0(
05
0)
#1360268
1&
11
#1368000
b1010110 $
1(
15
1)
#1373736
0&
01
#1376000
b1110110111010101100110001110100 -
b1110110111010101100110001110100 H
b10010001101010001100110011010001 M
b10010001101010001100110011010001 Q
b10010001101010001100110011010001 P
b1011010110001101011010110110001 N
0(
05
0)
#1384000
b1010111 $
1(
15
1)
#1387204
1&
11
#1392000
b1101110111101110001000001101011 -
b1101110111101110001000001101011 H
b10001001000100001111011100101001 M
b10001001000100001111011100101001 Q
b10001001000100001111011100101001 P
b10010001101010001100110011010001 N
0(
05
0)
#1400000
b1011000 $
1(
15
1)
#1400672
0&
01
#1408000
b100101101100110110001101111000 -
b100101101100110110001101111000 H
b1011011001100100011100111100001 M
b1011011001100100011100111100001 Q
b1011011001100100011100111100001 P
b10001001000100001111011100101001 N
0(
05
0)
#1414140
1&
11
#1416000
b1011001 $
1(
15
1)
#1424000
b1111001010110000111111010011001 -
b1111001010110000111111010011001 H
b1100001111001011000000101100110 M
b1100001111001011000000101100110 Q
b1100001111001011000000101100110 P
b1011011001100100011100111100001 N
0(
05
0)
#1427608
0&
01
#1432000
b1011010 $
1(
15
1)
#1440000
b1001101010110000100001011111011 -
b1001101010110000100001011111011 H
b1001101111001011011110100100000 M
b1001101111001011011110100100000 Q
b1001101111001011011110100100000 P
b1100001111001011000000101100110 N
0(
05
0)
#1441076
1&
11
#1448000
b1011011 $
1(
15
1)
#1454544
0&
01
#1456000
b11111000100100001001010011011010 -
b11111000100100001001010011011010 H
b11100000111101101101011010100100 M
b11100000111101101101011010100100 Q
b11100000111101101101011010100100 P
b1001101111001011011110100100000 N
0(
05
0)
#1464000
b1011100 $
1(
15
1)
#1468012
1&
11
#1472000
b110011000000011011111001100001 -
b110011000000011011111001100001 H
b110011011111111000001001111001 M
b110011011111111000001001111001 Q
b110011011111111000001001111001 P
b11100000111101101101011010100100 N
0(
05
0)
#1480000
b1011101 $
1(
15
1)
#1481480
0&
01
#1488000
b10011010001100001011001101101101 -
b10011010001100001011001101101101 H
b10100110111100110011001001001001 M
b10100110111100110011001001001001 Q
b10100110111100110011001001001001 P
b110011011111111000001001111001 N
0(
05
0)
#1494948
1&
11
#1496000
b1011110 $
1(
15
1)
#1504000
b11100111001001101011010111000010 -
b11100111001001101011010111000010 H
b11000100110110101001010111100 M
b11000100110110101001010111100 Q
b11000100110110101001010111100 P
b10100110111100110011001001001001 N
0(
05
0)
#1508416
0&
01
#1512000
b1011111 $
1(
15
1)
#1520000
b1110000001011011010111011101100 -
b1110000001011011010111011101100 H
b11110001010010111000101011001000 M
b11110001010010111000101011001000 Q
b11110001010010111000101011001000 P
b11000100110110101001010111100 N
0(
05
0)
#1521884
1&
11
#1528000
b1100000 $
1(
15
1)
#1535352
0&
01
#1536000
b10011100001100001110101110000010 -
b10011100001100001110101110000010 H
b11000110111100110010100010111110 M
b11000110111100110010100010111110 Q
b11000110111100110010100010111110 P
b11110001010010111000101011001000 N
0(
05
0)
#1544000
b1100001 $
1(
15
1)
#1548820
1&
11
#1552000
b11010010110110110011100100101011 -
b11010010110110110011100100101011 H
b10110100001001000110001100101011 M
b10110100001001000110001100101011 Q
b10110100001001000110001100101011 P
b11000110111100110010100010111110 N
0(
05
0)
#1560000
b1100010 $
1(
15
1)
#1562288
0&
01
#1568000
b10101110011001011111010010111010 -
b10101110011001011111010010111010 H
b10001010010110011101000010100010 M
b10001010010110011101000010100010 Q
b10001010010110011101000010100010 P
b10110100001001000110001100101011 N
0(
05
0)
#1575756
1&
11
#1576000
b1100011 $
b101010101010101010101010 +
b101010101010101010101010 /
1(
15
1)
#1584000
b111100101011101011011100011 -
b111100101011101011011100011 H
b11111010101101001010000111000 M
b11111010101101001010000111000 Q
b11111010101101001010000111000 P
b10001010010110011101000010100010 N
0(
05
0)
#1589224
0&
01
#1592000
b1100100 $
1(
15
1)
#1600000
b10111011101011001000010101001100 -
b10111011101011001000010101001100 H
b100010110010100101111011001101 M
b100010110010100101111011001101 Q
b100010110010100101111011001101 P
b11111010101101001010000111000 N
0(
05
0)
#1602692
1&
11
#1608000
b1100101 $
1(
15
1)
#1616000
b100101000000001111110110001110 -
b100101000000001111110110001110 H
b1011011111111110100000010001110 M
b1011011111111110100000010001110 Q
b1011011111111110100000010001110 P
b100010110010100101111011001101 N
0(
05
0)
#1616160
0&
01
#1624000
b1100110 $
1(
15
1)
#1629628
1&
11
#1632000
b11001010110001101000100010011001 -
b11001010110001101000100010011001 H
b10101100100111001110111001100110 M
b10101100100111001110111001100110 Q
b10101100100111001110111001100110 P
b1011011111111110100000010001110 N
0(
05
0)
#1640000
b1100111 $
1(
15
1)
#1643096
0&
01
#1648000
b11100101010011000010101010101001 -
b11100101010011000010101010101001 H
b1011000110011011010101101101010 M
b1011000110011011010101101101010 Q
b1011000110011011010101101101010 P
b10101100100111001110111001100110 N
0(
05
0)
#1656000
b1101000 $
1(
15
1)
#1656564
1&
11
